Assignment 3 - CRD
…
library(tidyverse) # for data wrangling and plotting
library(car) # for Anova function
library(broom) # for model residuals extraction and residuals diagnostics
library(emmeans) # for model mean extraction
library(multcomp) # for pairwise comparison letter display
library(multcompView) # for pairwise comparison letter display

Now, import the data set wheat_nk_bamyan.csv in the chunk below.

crd_adf <- read_csv("../data/wheat_nk_bamyan.csv")

crd_adf

# A tibble: 36 × 5
     trt   rep nrate_kgha krate_kgha yield_kgha
   <dbl> <dbl>      <dbl>      <dbl>      <dbl>
 1     1     1          0          0       1350
 2     2     1          0         30       2110
 3     3     1          0         60       5725
 4     4     1        100          0       2988
 5     5     1        100         30       3438
 6     6     1        100         60       6525
 7     7     1        200          0       2825
 8     8     1        200         30       4400
 9     9     1        200         60       7025
10     1     2          0          0       2250
# ℹ 26 more rows
…
c) Wrangling

Here, make sure to wrangle your data set with all needed steps. Refer back to class code if you need a refresher on what was needed.

crd_adfw <- crd_adf %>% #The "w" in "crd_adfw" is to indicate wrangled dataframe/ object
  mutate(rep = factor(rep), #"factor()" function converts "rep" from a "numeric" variable to "categorical" variable #The %>% pipe operator overwrites the previous "rep" (which was a "double") as a factor (categorical variable)
         nrate_kgha = factor(nrate_kgha), #"factor()" function converts "numeric" variable to "categorical" variable
         krate_kgha = factor(krate_kgha) #"factor()" function converts "numeric" variable to "categorical" variable
         ) %>%
  mutate(trtname_a = paste0(nrate_kgha,"+",krate_kgha)) #to combine the "nrate_kgha" and "krate_kgha" treatments, then treat the combined variable "trtname" as a factor

crd_adfw #Wrangled dataframe

# A tibble: 36 × 6
     trt rep   nrate_kgha krate_kgha yield_kgha trtname_a
   <dbl> <fct> <fct>      <fct>           <dbl> <chr>    
 1     1 1     0          0                1350 0+0      
 2     2 1     0          30               2110 0+30     
 3     3 1     0          60               5725 0+60     
 4     4 1     100        0                2988 100+0    
 5     5 1     100        30               3438 100+30   
 6     6 1     100        60               6525 100+60   
 7     7 1     200        0                2825 200+0    
 8     8 1     200        30               4400 200+30   
 9     9 1     200        60               7025 200+60   
10     1 2     0          0                2250 0+0      
# ℹ 26 more rows
…
we could have just used

nrate_kgha*krate_kgha.

R interprets the * as “give me all main effects and interactions”.

The more interaction effects a model has, the more efficient using the * becomes.” - Dr. Bastos

# Changing to sum-to-zero contrast
options(contrasts = c("contr.sum", "contr.poly"))

# Model fitting
crd_adfw #Original (main) wrangled data frame to check the variables

# A tibble: 36 × 6
     trt rep   nrate_kgha krate_kgha yield_kgha trtname_a
   <dbl> <fct> <fct>      <fct>           <dbl> <chr>    
 1     1 1     0          0                1350 0+0      
 2     2 1     0          30               2110 0+30     
 3     3 1     0          60               5725 0+60     
 4     4 1     100        0                2988 100+0    
 5     5 1     100        30               3438 100+30   
 6     6 1     100        60               6525 100+60   
 7     7 1     200        0                2825 200+0    
 8     8 1     200        30               4400 200+30   
 9     9 1     200        60               7025 200+60   
10     1 2     0          0                2250 0+0      
# ℹ 26 more rows
…
Question 2) Based on the ANOVA table above, for which effect(s) in the ANOVA should you extract means and perform pair-wise comparisons? Explain why.

Based on the ANOVA table above, the “nrate_kgha*krate_kgha” interaction effect is not significant at 5% level of significance because the p-value (= 0.53857) for this interaction effect is greater than 0.05. However, the main effects of both “nrate_kgha” and “krate_kgha” are significant at 1% level of significance becase the p-values for both “nrate_kgha”(p-value = 0.00394) and “krate_kgha” (p-value = 5.892e-06) are less than 0.01. Therefore, I should extract means and perform pair-wise comparisons for the main effects of Nitrogen rate (nrate_kgha ) and Potassium rate (krate_kgha), because both of the main effects for Nitrogen rate i.e., nrate_kgha (p-value = 0.00394) and Potassium rate i.e., krate_kgha (p-value = 5.892e-06) are found significant in the ANOVA table at alpha = 0.01 (1%) level of significance.

g) Linear model assumptions

Use this section to first compute your residuals, including studentdized residuals.

crd_resid_a <- broom::augment(crd_mod_a) %>% #"augment() function is included in the "broom" package
  mutate(.studresid = rstudent(crd_mod_a)) #creating studentized residuals in a separate column

crd_resid_a

# A tibble: 36 × 10
   yield_kgha nrate_kgha krate_kgha .fitted  .resid  .hat .sigma  .cooksd
        <dbl> <fct>      <fct>        <dbl>   <dbl> <dbl>  <dbl>    <dbl>
 1       1350 0          0            1503.  -153.  0.25   1149. 0.000908
 2       2110 0          30           2850.  -740.  0.25   1138. 0.0213  
 3       5725 0          60           4426.  1299.  0.250  1112. 0.0655  
 4       2988 100        0            2344.   644.  0.25   1141. 0.0161  
 5       3438 100        30           4224.  -786.  0.25   1136. 0.0239  
 6       6525 100        60           5351   1174   0.25   1119. 0.0535  
 7       2825 200        0            2891.   -66.5 0.25   1150. 0.000172
 8       4400 200        30           5618. -1218.  0.25   1116. 0.0576  
 9       7025 200        60           5334   1691   0.25   1084. 0.111   
10       2250 0          0            1503.   747.  0.25   1137. 0.0216  
# ℹ 26 more rows
# ℹ 2 more variables: .std.resid <dbl>, .studresid <dbl>
…
